<?xml version="1.0" encoding="iso-8859-1"?>
<!-- Generator: Adobe Illustrator 17.0.0, SVG Export Plug-In . SVG Version: 6.00 Build 0)  -->
<!DOCTYPE svg PUBLIC "-//W3C//DTD SVG 1.1//EN" "http://www.w3.org/Graphics/SVG/1.1/DTD/svg11.dtd">
<svg version="1.1" id="Layer_1" xmlns="http://www.w3.org/2000/svg" xmlns:xlink="http://www.w3.org/1999/xlink" x="0px" y="0px"
	 width="496px" height="496px" viewBox="-41 149 496 496" style="enable-background:new -41 149 496 496;" xml:space="preserve">
<g>
	<path fill="#00B798" d="M455,501.232c0-38.4-14.952-74.504-42.112-101.656L391,377.688l-48,48V393.16l-40-32.008V149H-1v212.152l-40,32.008V645
		h352.232H343v-3.656C407.016,626.832,455,569.584,455,501.232z M391,400.312l10.576,10.576c0.712,0.712,1.32,1.488,2.008,2.208
		L359,457.688L346.312,445L391,400.312z M374.032,495.344c3.12,3.12,3.12,8.192,0,11.312L343,537.688v-73.376L374.032,495.344z
		 M327,448.312v105.376l-10.344,10.344c-3.128,3.128-8.184,3.128-11.312,0L255,513.688l-8.184,8.184l-36.56-27.024L327,412.448
		v29.24L323.688,445L327,448.312z M220.888,591.576L210.312,581L255,536.312L267.688,549l-44.584,44.584
		C222.376,592.896,221.6,592.288,220.888,591.576z M321.688,396.6L303,409.792v-28.144L321.688,396.6z M15,165h272v256h0.12
		l-90.424,63.832L151,451.056l-45.696,33.776L14.88,421H15V165z M91.744,494.856L-25,581.144V412.448L91.744,494.856z M-1,409.792
		L-19.688,396.6L-1,381.648V409.792z M-25,629v-27.968l176-130.088l84.376,62.368L187.688,581l21.888,21.888
		c10.664,10.664,22.752,19.376,35.776,26.112H-25z M337.92,626.152l-4.208,0.744c-0.088,0.016-0.176,0.024-0.264,0.04
		c-3.776,0.664-7.4,1.152-10.936,1.496c-3.72,0.328-7.472,0.568-11.28,0.568c-27.704,0-53.976-8.888-75.824-25.096L279,560.312
		l15.032,15.032c9.36,9.36,24.576,9.36,33.936,0l57.376-57.376c9.36-9.36,9.36-24.576,0-33.936L370.312,469l43.592-43.592
		C430.112,447.256,439,473.536,439,501.232C439,562.528,395.6,613.84,337.92,626.152z"/>
	<path fill="#00B798" fill="#00B798" d="M271,181H31v144h240V181z M255,309H47V197h208V309z"/>
	<rect fill="#00B798" x="31" y="341" width="240" height="16"/>
	<rect fill="#00B798" x="31" y="373" width="240" height="16"/>
	<rect fill="#00B798" x="255" y="405" width="16" height="16"/>
	<rect fill="#00B798" x="223" y="405" width="16" height="16"/>
	<rect fill="#00B798" x="31" y="405" width="176" height="16"/>
</g>
</svg>
